4 Geospatial artificial intelligence (GeoAI) for remote sensing data – IEEE IGARSS 2025 Summer School
…
See here for more details about the gpboost model on spatio-temporal data.

Code

library(sf)

d24 = read_sf('./data/3. Spatial analysis/burnedarea_2024.shp')
names(d24) = c("pre","tem","burned","geometry")
d24
# Simple feature collection with 644 features and 3 fields
# Geometry type: POLYGON
# Dimension:     XY
# Bounding box:  xmin: 129 ymin: -14.9 xmax: 131 ymax: -13.3
# Geodetic CRS:  WGS 84
# # A tibble: 644 × 4
#     pre   tem burned                                        geometry
#   <dbl> <dbl>  <dbl>                                   <POLYGON [°]>
# 1  28.0 1893.   1250 ((130 -13.3, 130 -13.3, 130 -13.3, 130 -13.3, …
# 2  28.0 1856.   1529 ((130 -13.3, 130 -13.3, 130 -13.3, 130 -13.3, …
# 3  28.0 1888.   2203 ((130 -13.3, 130 -13.3, 130 -13.3, 130 -13.3, …
# 4  28.0 1884.   1289 ((131 -13.3, 131 -13.3, 131 -13.3, 131 -13.3, …
# 5  28.0 1865.   4247 ((131 -13.3, 131 -13.3, 131 -13.3, 131 -13.3, …
# 6  28.0 1873.   1991 ((131 -13.3, 131 -13.3, 131 -13.3, 131 -13.3, …
# # ℹ 638 more rows
…
